^C:\USERS\YOVEL\DESKTOP\LESSON5\ARROW.CPP|C:\USERS\YOVEL\DESKTOP\LESSON5\CIRCLE.CPP|C:\USERS\YOVEL\DESKTOP\LESSON5\MAIN.CPP|C:\USERS\YOVEL\DESKTOP\LESSON5\MENU.CPP|C:\USERS\YOVEL\DESKTOP\LESSON5\POINT.CPP|C:\USERS\YOVEL\DESKTOP\LESSON5\POLYGON.CPP|C:\USERS\YOVEL\DESKTOP\LESSON5\RECTANGLE.CPP|C:\USERS\YOVEL\DESKTOP\LESSON5\SHAPE.CPP|C:\USERS\YOVEL\DESKTOP\LESSON5\TRIANGLE.CPP
C:\USERS\YOVEL\DESKTOP\FIVE\FIVE\DEBUG\VC141.PDB
C:\USERS\YOVEL\DESKTOP\FIVE\FIVE\DEBUG\VC141.IDB
C:\USERS\YOVEL\DESKTOP\FIVE\FIVE\DEBUG\TRIANGLE.OBJ
C:\USERS\YOVEL\DESKTOP\FIVE\FIVE\DEBUG\SHAPE.OBJ
C:\USERS\YOVEL\DESKTOP\FIVE\FIVE\DEBUG\RECTANGLE.OBJ
C:\USERS\YOVEL\DESKTOP\FIVE\FIVE\DEBUG\POLYGON.OBJ
C:\USERS\YOVEL\DESKTOP\FIVE\FIVE\DEBUG\POINT.OBJ
C:\USERS\YOVEL\DESKTOP\FIVE\FIVE\DEBUG\MENU.OBJ
C:\USERS\YOVEL\DESKTOP\FIVE\FIVE\DEBUG\MAIN.OBJ
C:\USERS\YOVEL\DESKTOP\FIVE\FIVE\DEBUG\CIRCLE.OBJ
C:\USERS\YOVEL\DESKTOP\FIVE\FIVE\DEBUG\ARROW.OBJ
^C:\USERS\YOVEL\DESKTOP\LESSON5\ARROW.CPP
C:\USERS\YOVEL\DESKTOP\FIVE\FIVE\DEBUG\VC141.PDB
^C:\USERS\YOVEL\DESKTOP\LESSON5\CIRCLE.CPP
C:\USERS\YOVEL\DESKTOP\FIVE\FIVE\DEBUG\VC141.PDB
^C:\USERS\YOVEL\DESKTOP\LESSON5\POINT.CPP
C:\USERS\YOVEL\DESKTOP\FIVE\FIVE\DEBUG\VC141.PDB
^C:\USERS\YOVEL\DESKTOP\LESSON5\POLYGON.CPP
C:\USERS\YOVEL\DESKTOP\FIVE\FIVE\DEBUG\VC141.PDB
^C:\USERS\YOVEL\DESKTOP\LESSON5\RECTANGLE.CPP
C:\USERS\YOVEL\DESKTOP\FIVE\FIVE\DEBUG\VC141.PDB
^C:\USERS\YOVEL\DESKTOP\LESSON5\SHAPE.CPP
C:\USERS\YOVEL\DESKTOP\FIVE\FIVE\DEBUG\VC141.PDB
^C:\USERS\YOVEL\DESKTOP\LESSON5\TRIANGLE.CPP
C:\USERS\YOVEL\DESKTOP\FIVE\FIVE\DEBUG\VC141.PDB
^C:\USERS\YOVEL\DESKTOP\LESSON5\MAIN.CPP|C:\USERS\YOVEL\DESKTOP\LESSON5\MENU.CPP
C:\USERS\YOVEL\DESKTOP\FIVE\FIVE\DEBUG\VC141.PDB
C:\USERS\YOVEL\DESKTOP\FIVE\FIVE\DEBUG\VC141.IDB
C:\USERS\YOVEL\DESKTOP\FIVE\FIVE\DEBUG\MAIN.OBJ
C:\USERS\YOVEL\DESKTOP\FIVE\FIVE\DEBUG\MENU.OBJ
^C:\USERS\YOVEL\DESKTOP\LESSON5\MENU.CPP
C:\USERS\YOVEL\DESKTOP\FIVE\FIVE\DEBUG\VC141.PDB
^C:\USERS\YOVEL\DESKTOP\LESSON5\MAIN.CPP
C:\USERS\YOVEL\DESKTOP\FIVE\FIVE\DEBUG\VC141.PDB
